{
  "port": "3000",
  "defaultNodeIndex": 1,
  "dbDirectoryPath": "/home/rtl/RTL",
  "SSO": {
    "rtlSSO": 0,
    "rtlCookiePath": "",
    "logoutRedirectLink": ""
  },
  "nodes": [
    {
      "index": 1,
      "lnNode": "Eclair 1",
      "lnImplementation": "ECL",
      "authentication": {
        "configPath": "/home/eclair/.eclair/eclair.conf"
      },
      "settings": {
        "userPersona": "OPERATOR",
        "themeMode": "DAY",
        "themeColor": "PURPLE",
        "bitcoindConfigPath": "",
        "logLevel": "INFO",
        "fiatConversion": false,
        "unannouncedChannels": false,
        "lnServerUrl": "http://127.0.0.1:8080"
      }
    }
  ],
  "multiPassHashed": "f75778f7425be4db0369d09af37a6c2b9a83dea0e53e7bd57412e4b060e607f7"
}